{
    "baseURL": "https://coldwell.banker.com/",
    "baseurl": "",
    "retries":
    {
        "runmode":1
    },
    "chromeWebSecurity": false,
    "env":
    {
        "environment": "qa",
        "snackbarWaitTime": 2500
    }
}